digraph accordys {
  textes [label="Documents\ncliniques\ntextuels",shape="rectangle"];
  entites [label="Entités\nmédicales"];
  infos [label="Cadre temporel\net structurel des\n informations"];
  medline [label="MEDLINE",shape="rectangle"];
  mesh [label="Thesaurus\nMeSH",shape="rectangle"];
  omim [label="OMIM",shape="rectangle"];
  term [label="Terminologie\nOMIM",shape="rectangle"];

  textes -> infos [label=" Détection"];
  textes -> entites;
  medline -> mesh [label=" mettent à disposition"];
  omim -> term;
  mesh -> entites [label=" Recherche de\n cas similaires",dir="both"];
  term -> entites [dir="both"];
}
